{
	"Name": "minikube",
	"KeepContext": false,
	"EmbedCerts": false,
	"MinikubeISO": "",
	"KicBaseImage": "gcr.io/k8s-minikube/kicbase:v0.0.39@sha256:bf2d9f1e9d837d8deea073611d2605405b6be904647d97ebd9b12045ddfe1106",
	"Memory": 2200,
	"CPUs": 2,
	"DiskSize": 20000,
	"VMDriver": "",
	"Driver": "docker",
	"HyperkitVpnKitSock": "",
	"HyperkitVSockPorts": [],
	"DockerEnv": null,
	"ContainerVolumeMounts": null,
	"InsecureRegistry": null,
	"RegistryMirror": [],
	"HostOnlyCIDR": "192.168.59.1/24",
	"HypervVirtualSwitch": "",
	"HypervUseExternalSwitch": false,
	"HypervExternalAdapter": "",
	"KVMNetwork": "default",
	"KVMQemuURI": "qemu:///system",
	"KVMGPU": false,
	"KVMHidden": false,
	"KVMNUMACount": 1,
	"APIServerPort": 0,
	"DockerOpt": null,
	"DisableDriverMounts": false,
	"NFSShare": [],
	"NFSSharesRoot": "/nfsshares",
	"UUID": "",
	"NoVTXCheck": false,
	"DNSProxy": false,
	"HostDNSResolver": true,
	"HostOnlyNicType": "virtio",
	"NatNicType": "virtio",
	"SSHIPAddress": "",
	"SSHUser": "root",
	"SSHKey": "",
	"SSHPort": 22,
	"KubernetesConfig": {
		"KubernetesVersion": "v1.26.3",
		"ClusterName": "minikube",
		"Namespace": "default",
		"APIServerName": "minikubeCA",
		"APIServerNames": null,
		"APIServerIPs": null,
		"DNSDomain": "cluster.local",
		"ContainerRuntime": "docker",
		"CRISocket": "",
		"NetworkPlugin": "cni",
		"FeatureGates": "",
		"ServiceCIDR": "10.96.0.0/12",
		"ImageRepository": "",
		"LoadBalancerStartIP": "",
		"LoadBalancerEndIP": "",
		"CustomIngressCert": "",
		"RegistryAliases": "",
		"ExtraOptions": null,
		"ShouldLoadCachedImages": true,
		"EnableDefaultCNI": false,
		"CNI": "",
		"NodeIP": "",
		"NodePort": 8443,
		"NodeName": ""
	},
	"Nodes": [
		{
			"Name": "",
			"IP": "192.168.49.2",
			"Port": 8443,
			"KubernetesVersion": "v1.26.3",
			"ContainerRuntime": "docker",
			"ControlPlane": true,
			"Worker": true
		}
	],
	"Addons": {
		"default-storageclass": true,
		"storage-provisioner": true
	},
	"CustomAddonImages": null,
	"CustomAddonRegistries": null,
	"VerifyComponents": {
		"apiserver": true,
		"system_pods": true
	},
	"StartHostTimeout": 360000000000,
	"ScheduledStop": null,
	"ExposedPorts": [],
	"ListenAddress": "",
	"Network": "",
	"Subnet": "",
	"MultiNodeRequested": false,
	"ExtraDisks": 0,
	"CertExpiration": 94608000000000000,
	"Mount": false,
	"MountString": "/home/osboxes:/minikube-host",
	"Mount9PVersion": "9p2000.L",
	"MountGID": "docker",
	"MountIP": "",
	"MountMSize": 262144,
	"MountOptions": [],
	"MountPort": 0,
	"MountType": "9p",
	"MountUID": "docker",
	"BinaryMirror": "",
	"DisableOptimizations": false,
	"DisableMetrics": false,
	"CustomQemuFirmwarePath": "",
	"SocketVMnetClientPath": "",
	"SocketVMnetPath": "",
	"StaticIP": ""
}